{
  "success": true,
  "data": {
    "category": {
      "id": 17,
      "name": "আন্তর্জাতিক",
      "slug": "international",
      "count": 1425
    },
    "posts": [
      {
        "id": 48650,
        "slug": "দেশজুড়ে-বড়-আন্দোলনের-প",
        "title": "দেশজুড়ে বড় আন্দোলনের প্রস্তুতির নির্দেশ ইমরান খানের",
        "excerpt": "<p>পাকিস্তানের সাবেক প্রধানমন্ত্রী এবং পাকিস্তান তেহরিক-ই-ইনসাফ (পিটিআই) দলের প্রতিষ্ঠাতা ইমরান খান তার দলের সর্বস্তরের নেতাকর্মীদেরকে দেশজুড়ে একটি বৃহৎ রাজনৈতিক আন্দোলনের জন্য প্রস্তুতি নেওয়ার আহ্বান জানিয়েছেন। কারাবন্দি অবস্থায় থেকেও তিনি এ নির্দেশ দিয়েছেন বলে জানিয়েছেন তার বোন আলীমা খান। খবর জিও নিউজের। সোমবার (২৬ মে) পাঞ্জাব প্রদেশের আদিয়ালা কারাগারে ইমরান খানের সঙ্গে সাক্ষাৎ শেষে সাংবাদিকদের সঙ্গে [&hellip;]</p>\n",
        "date": "2025-05-27T12:43:43",
        "modified": "2025-05-27T12:43:44",
        "categories": [
          { "id": 17, "name": "আন্তর্জাতিক", "slug": "international" }
        ],
        "tags": [
          { "id": 1570, "name": "আন্দোলন", "slug": "আন্দোলন" },
          { "id": 714, "name": "ইমরান খান", "slug": "ইমরান-খান" },
          { "id": 1077, "name": "নির্দেশ", "slug": "নির্দেশ" },
          { "id": 6110, "name": "প্রস্তুতি", "slug": "প্রস্তুতি" }
        ],
        "author": { "id": 2, "name": "নিউজ ডেস্ক", "slug": "coderfleek" },
        "featuredImage": {
          "sourceUrl": "https://dainiksokal.com/wp-content/uploads/2025/05/Untitled-design-2025-05-27T123947.069.jpg",
          "altText": "ইমরান খান",
          "mediaDetails": { "width": 1200, "height": 630 }
        }
      },
      {
        "id": 48479,
        "slug": "মাল্টা-ফিলিস্তিন-রাষ্ট্র",
        "title": "মাল্টা ফিলিস্তিন রাষ্ট্রকে স্বীকৃতি দেবে: একই পদক্ষেপ নিতে যাচ্ছে ফ্রান্স ও ব্রিটেন",
        "excerpt": "<p>স্পেন সহ বেশ কয়েকটি দেশের অনুসরণ করে মাল্টার প্রধানমন্ত্রী ঘোষণা করেছেন যে দেশটি আগামী মাসে ফিলিস্তিন রাষ্ট্রকে স্বীকৃতি দেবে। মাল্টার প্রধানমন্ত্রী রবার্ট অ্যাবেলা বলেছেন যে ফিলিস্তিন রাষ্ট্রকে স্বীকৃতি দেওয়ার মাধ্যমে দেশটিতে গত ৪৫ বছরের জাতীয় বিতর্কের অবসান ঘটাবে। পার্সটুডে জানিয়েছে, মাল্টার প্রধানমন্ত্রী রবার্ট অ্যাবেলা গাজায় ইসরাইলি আগ্রাসনে ৫০,০০০ এরও বেশি মানুষের নিহত হওয়ার কথা উল্লেখ [&hellip;]</p>\n",
        "date": "2025-05-26T11:29:43",
        "modified": "2025-05-26T11:29:43",
        "categories": [
          { "id": 17, "name": "আন্তর্জাতিক", "slug": "international" }
        ],
        "tags": [],
        "author": { "id": 3, "name": "এডিটর", "slug": "arfan" },
        "featuredImage": {
          "sourceUrl": "https://dainiksokal.com/wp-content/uploads/2025/05/New-Project-47.jpg",
          "altText": "",
          "mediaDetails": { "width": 1200, "height": 628 }
        }
      },
      {
        "id": 48470,
        "slug": "শান্তির-কণ্ঠস্বর-ফিলিস্ত",
        "title": "শান্তির কণ্ঠস্বর ফিলিস্তিনি শিশু ‘ইয়াকিন’ যোগ দিল শহীদি মিছিলে",
        "excerpt": "<p>ফিলিস্তিনি শিশু &#8216;ইয়াকিন খাদের হামাদ&#8217;-এর নৃশংস হত্যাকাণ্ড সারা বিশ্বের সামাজিক যোগাযোগ মাধ্যমে নিন্দার ঝড় তুলেছে। নেটিজেনরা শিশুদের বিরুদ্ধে ইসরাইলি সরকারের ঘৃণ্য অপরাধযজ্ঞের বিরুদ্ধে ক্ষোভ প্রকাশ করেছেন। গাজা যুদ্ধের অন্ধকারের মাঝেও একটি কণ্ঠস্বর ন্যায়ের জন্য ডাক দিত—সেটি ছিল &#8216;ইয়াকিন খাদর হামাদ&#8217;-এর কণ্ঠ। এই শিশু অল্প বয়সেই গাজায় প্রতিরোধ ও আশার প্রতীকে পরিণত হয়েছিল। পার্স টুডে&#8217;র রিপোর্ট [&hellip;]</p>\n",
        "date": "2025-05-26T10:41:23",
        "modified": "2025-05-26T10:41:24",
        "categories": [
          { "id": 17, "name": "আন্তর্জাতিক", "slug": "international" }
        ],
        "tags": [],
        "author": { "id": 3, "name": "এডিটর", "slug": "arfan" },
        "featuredImage": {
          "sourceUrl": "https://dainiksokal.com/wp-content/uploads/2025/05/New-Project-46.jpg",
          "altText": "",
          "mediaDetails": { "width": 1200, "height": 628 }
        }
      },
      {
        "id": 48465,
        "slug": "পুতিন-পুরোপুরি-পাগল-হয়ে",
        "title": "পুতিন পুরোপুরি পাগল হয়ে গেছেন: ডোনাল্ড ট্রাম্প ",
        "excerpt": "<p>রুশ প্রেসিডেন্ট ভ্লাদিমির পুতিনের কড়া সমালোচনা করেছেন মার্কিন প্রেসিডেন্ট ডোনাল্ড ট্রাম্প। তিনি পুতিনের কর্মকাণ্ডে খুশি নন বলেও জানিয়েছেন। এমন পরিস্থিতিতে প্রশ্ন উঠেছে, দুই নেতার মধ্যে সম্পর্ক খারাপের দিকে যাচ্ছে। বিবিসির প্রতিবেদনে বলা হয়েছে, যুদ্ধ শুরুর পর গত শনিবার ইউক্রেনে সবচেয়ে বড় হামলা চালিয়েছে রুশ বাহিনী। এ নিয়ে রোববার (২৫ মে) পুতিনকে উন্মাদ বলে উল্লেখ করেছেন [&hellip;]</p>\n",
        "date": "2025-05-26T10:28:55",
        "modified": "2025-05-26T10:28:56",
        "categories": [
          { "id": 17, "name": "আন্তর্জাতিক", "slug": "international" }
        ],
        "tags": [
          { "id": 532, "name": "ইউক্রেন", "slug": "ইউক্রেন" },
          { "id": 401, "name": "ডোনাল্ড ট্রাম্প", "slug": "ডোনাল্ড-ট্রাম্প" },
          {
            "id": 12988,
            "name": "প্রেসিডেন্ট পুতিন",
            "slug": "প্রেসিডেন্ট-পুতিন"
          },
          { "id": 443, "name": "হামলা", "slug": "হামলা" }
        ],
        "author": { "id": 2, "name": "নিউজ ডেস্ক", "slug": "coderfleek" },
        "featuredImage": {
          "sourceUrl": "https://dainiksokal.com/wp-content/uploads/2025/05/Untitled-design-15-3.jpg",
          "altText": "পুতিন পুরোপুরি পাগল হয়ে গেছেন: ডোনাল্ড ট্রাম্প ",
          "mediaDetails": { "width": 1200, "height": 630 }
        }
      },
      {
        "id": 48462,
        "slug": "ফিলিস্তিন-রাষ্ট্রকে-স্বী",
        "title": "ফিলিস্তিন রাষ্ট্রকে স্বীকৃতি দেওয়ার ঘোষণা দিলো মাল্টা",
        "excerpt": "<p>ভূমধ্যসাগরে অবস্থিত দক্ষিণ ইউরোপের দ্বীপ দেশ মাল্টা ফিলিস্তিনকে রাষ্ট্র হিসেবে স্বীকৃতি দেওয়ার ঘোষণা দিয়েছে। দেশটির প্রধানমন্ত্রী রবার্ট অ্যাবেলা একথা ঘোষণা করেছেন। তিনি বলেছেন, আগামী মাসেই ফিলিস্তিন রাষ্ট্রকে আনুষ্ঠানিকভাবে স্বীকৃতি দেবে তার দেশ। রোববার (২৫ মে) রাতে এক প্রতিবেদনে এই তথ্য জানিয়েছে বার্তাসংস্থা আনাদোলু। রোববার এক রাজনৈতিক অনুষ্ঠানে দেওয়া বক্তব্যে অ্যাবেলা স্থানীয় ও আন্তর্জাতিক বিভিন্ন বিষয় [&hellip;]</p>\n",
        "date": "2025-05-26T10:21:58",
        "modified": "2025-05-26T10:21:58",
        "categories": [
          { "id": 17, "name": "আন্তর্জাতিক", "slug": "international" }
        ],
        "tags": [
          { "id": 707, "name": "ফিলিস্তিন", "slug": "ফিলিস্তিন" },
          { "id": 1882, "name": "রাষ্ট্র", "slug": "রাষ্ট্র" }
        ],
        "author": { "id": 2, "name": "নিউজ ডেস্ক", "slug": "coderfleek" },
        "featuredImage": {
          "sourceUrl": "https://dainiksokal.com/wp-content/uploads/2025/05/Untitled-design-14-3.jpg",
          "altText": "ফিলিস্তিন রাষ্ট্রকে স্বীকৃতি দেওয়ার ঘোষণা দিলো মাল্টা",
          "mediaDetails": { "width": 1200, "height": 630 }
        }
      },
      {
        "id": 48456,
        "slug": "ইসরাইলের-সঙ্গে-যুদ্ধ-এখন",
        "title": "ইসরাইলের সঙ্গে যুদ্ধ এখনো শেষ হয়নি: হিজবুল্লাহ মহাসচিব",
        "excerpt": "<p>ইসরাইলের সঙ্গে যুদ্ধ এখনো শেষ হয়নি। করণ তারা চুক্তি মেনে চলেনি। এমনটাই মন্তব্য করেছেন লেবাননের সশস্ত্র গোষ্ঠী হিজবুল্লাহর মহাসচিব শেখ নাইম কাসেম। শেখ নাইম কাসেম রোববার (২৫ মে) লেবাননের ‘প্রতিরোধ ও মুক্তি দিবস’ উপলক্ষ্যে দেওয়া এক বক্তৃতায় এ কথা বলেন। বক্তৃতার শুরুতে নাইম কাসেম বলেন, ‘প্রতিরোধ ও মুক্তি দিবস’ এই অঞ্চলে ও বিশ্বে লেবাননের মর্যাদাকে [&hellip;]</p>\n",
        "date": "2025-05-26T10:11:41",
        "modified": "2025-05-26T10:12:12",
        "categories": [
          { "id": 17, "name": "আন্তর্জাতিক", "slug": "international" }
        ],
        "tags": [
          { "id": 424, "name": "ইসরাইল", "slug": "ইসরাইল" },
          { "id": 444, "name": "হিজবুল্লাহ", "slug": "হিজবুল্লাহ" }
        ],
        "author": { "id": 2, "name": "নিউজ ডেস্ক", "slug": "coderfleek" },
        "featuredImage": {
          "sourceUrl": "https://dainiksokal.com/wp-content/uploads/2025/05/Untitled-design-12-3.jpg",
          "altText": "ইসরাইলের সঙ্গে যুদ্ধ এখনো শেষ হয়নি: হিজবুল্লাহ মহাসচিব",
          "mediaDetails": { "width": 1200, "height": 630 }
        }
      },
      {
        "id": 48437,
        "slug": "উত্তরপ্রদেশে-মুসলিম-যুবক",
        "title": "উত্তরপ্রদেশে মুসলিম যুবকদের ওপর ফের ‘গোরক্ষক’ বাহিনীর হামলা",
        "excerpt": "<p>গাড়িতে গরুর মাংস বহন করা হচ্ছে, এই সন্দেহে ভারতের উত্তরপ্রদেশে চারজন মুসলিম যুবককে নির্মমভাবে পিটিয়ে জখম করেছে সেখানকার তথাকথিত ‘গোরক্ষক’ বাহিনীর লোকজন। আহত চারজনের মধ্যে তিনজনের অবস্থাই অত্যন্ত আশঙ্কাজনক। ঘটনাটি ঘটেছে শনিবার রাজ্যের আলিগড় জেলায়। আহত যুবকরা সবাই ওই জেলার আটরাউলি শহরের বাসিন্দা। জেলা পুলিশ সূত্রে তাদের নাম আরবাজ, আকিল, কাদিম ও মুন্না খান বলে [&hellip;]</p>\n",
        "date": "2025-05-25T23:16:04",
        "modified": "2025-05-25T23:16:04",
        "categories": [
          { "id": 17, "name": "আন্তর্জাতিক", "slug": "international" }
        ],
        "tags": [
          { "id": 14518, "name": "উত্তরপ্রদেশে", "slug": "উত্তরপ্রদেশে" },
          { "id": 14517, "name": "গোরক্ষক", "slug": "গোরক্ষক" },
          { "id": 10433, "name": "বাহিনী", "slug": "বাহিনী" },
          { "id": 2735, "name": "মুসলিম", "slug": "মুসলিম" },
          { "id": 2331, "name": "যুবক", "slug": "যুবক" },
          { "id": 443, "name": "হামলা", "slug": "হামলা" }
        ],
        "author": { "id": 2, "name": "নিউজ ডেস্ক", "slug": "coderfleek" },
        "featuredImage": {
          "sourceUrl": "https://dainiksokal.com/wp-content/uploads/2025/05/Untitled-design-2025-05-25T231440.107.jpg",
          "altText": "উত্তরপ্রদেশে মুসলিম যুবকদের ওপর ফের ‘গোরক্ষক’ বাহিনীর হামলা",
          "mediaDetails": { "width": 1350, "height": 709 }
        }
      },
      {
        "id": 48372,
        "slug": "বাংলাদেশে-সামরিক-ঘাঁটি-ন",
        "title": "বাংলাদেশে সামরিক ঘাঁটি নির্মাণ করতে চায় চীন : দাবি যুক্তরাষ্ট্রের",
        "excerpt": "<p>বিশ্বজুড়ে প্রভাব বিস্তার এবং কৌশলগত অবস্থান সুদৃঢ় করতে বাংলাদেশসহ একাধিক দেশে সামরিক অবকাঠামো নির্মাণে আগ্রহী চীন- এমনটাই দাবি করেছে যুক্তরাষ্ট্র। দেশটির প্রতিরক্ষা গোয়েন্দা সংস্থা ডিফেন্স ইন্টেলিজেন্স এজেন্সির (ডিআইএ) সদ্য প্রকাশিত ‘বার্ষিক হুমকি মূল্যায়ন’ প্রতিবেদনে এ তথ্য উঠে এসেছে। প্রতিবেদনে বলা হয়েছে, চীনের পিপলস লিবারেশন আর্মি (পিএলএ) বাংলাদেশে সামরিক অবকাঠামো গড়ার পরিকল্পনা করছে। শুধু বাংলাদেশ নয়, [&hellip;]</p>\n",
        "date": "2025-05-25T20:16:06",
        "modified": "2025-05-25T20:16:07",
        "categories": [
          { "id": 17, "name": "আন্তর্জাতিক", "slug": "international" }
        ],
        "tags": [
          { "id": 2019, "name": "দাবি", "slug": "দাবি" },
          { "id": 2843, "name": "নির্মাণ", "slug": "নির্মাণ" },
          { "id": 403, "name": "বাংলাদেশ", "slug": "বাংলাদেশ" },
          { "id": 153, "name": "যুক্তরাষ্ট্র", "slug": "যুক্তরাষ্ট্র" },
          { "id": 442, "name": "সামরিক ঘাঁটি", "slug": "সামরিক-ঘাঁটি" }
        ],
        "author": { "id": 2, "name": "নিউজ ডেস্ক", "slug": "coderfleek" },
        "featuredImage": {
          "sourceUrl": "https://dainiksokal.com/wp-content/uploads/2025/05/Untitled-design-2025-05-25T201526.986.jpg",
          "altText": "বাংলাদেশে সামরিক ঘাঁটি নির্মাণ করতে চায় চীন : দাবি যুক্তরাষ্ট্রের",
          "mediaDetails": { "width": 1200, "height": 630 }
        }
      },
      {
        "id": 48149,
        "slug": "মে-মাসেই-নৌকাডুবিতে-৪২৭-র",
        "title": "মে মাসেই নৌকাডুবিতে ৪২৭ রোহিঙ্গার মৃত্যু: জাতিসংঘ",
        "excerpt": "<p>মিয়ানমার ও বাংলাদেশে ভয়াবহ মানবিক সংকটের কারণে আরও রোহিঙ্গা নিরাপদ জীবনের খোঁজে ঝুঁকিপূর্ণ নৌযাত্রায় ঝুঁকছে বলে জাতিসংঘ জানিয়েছে। শুক্রবার (২৩ মে) সংস্থাটি বলেছে, গত এক মাসে নৌকাডুবির ঘটনায় ৪২৭ জনের মতো মৃত্যু হয়েছে বলে ধারণা করা হচ্ছে। জাতিসংঘ আরও বলেছে, সহায়তা তহবিল কমায় হয়তো এই সংখ্যালঘু সম্প্রদায়ের এমন ঝুঁকি নেওয়ার প্রবণতা বাড়ছে। রয়টার্স লিখেছে, রাশিয়া [&hellip;]</p>\n",
        "date": "2025-05-24T12:43:54",
        "modified": "2025-05-24T12:43:55",
        "categories": [
          { "id": 17, "name": "আন্তর্জাতিক", "slug": "international" }
        ],
        "tags": [
          { "id": 1311, "name": "জাতিসংঘ", "slug": "জাতিসংঘ" },
          { "id": 4314, "name": "নৌকাডুবি", "slug": "নৌকাডুবি" },
          { "id": 3870, "name": "রোহিঙ্গা", "slug": "রোহিঙ্গা" }
        ],
        "author": { "id": 2, "name": "নিউজ ডেস্ক", "slug": "coderfleek" },
        "featuredImage": {
          "sourceUrl": "https://dainiksokal.com/wp-content/uploads/2025/05/New-Project-11-4.jpg",
          "altText": "মে মাসেই নৌকাডুবিতে ৪২৭ রোহিঙ্গার মৃত্যু: জাতিসংঘ",
          "mediaDetails": { "width": 1200, "height": 630 }
        }
      },
      {
        "id": 48081,
        "slug": "ভারতীয়-কোম্পানির-সঙ্গে",
        "title": "ভারতীয় কোম্পানির সঙ্গে চুক্তি বাতিল করেছে বাংলাদেশ",
        "excerpt": "<p>ভারত সরকারের সাম্প্রতিক সিদ্ধান্তে বাংলাদেশের তৈরি পোশাক ও বিভিন্ন পণ্য স্থলবন্দর দিয়ে প্রবেশে নিষেধাজ্ঞা জারি করা হয়। এর পরিপ্রেক্ষিতেই এই প্রতিরক্ষা চুক্তি বাতিলের সিদ্ধান্ত এসেছে বলে কূটনৈতিক মহলের ধারণা। </p>\n",
        "date": "2025-05-23T21:04:36",
        "modified": "2025-05-23T21:04:37",
        "categories": [
          { "id": 17, "name": "আন্তর্জাতিক", "slug": "international" }
        ],
        "tags": [
          { "id": 2187, "name": "চুক্তি বাতিল", "slug": "চুক্তি-বাতিল" },
          { "id": 403, "name": "বাংলাদেশ", "slug": "বাংলাদেশ" },
          { "id": 503, "name": "ভারত", "slug": "ভারত" }
        ],
        "author": { "id": 2, "name": "নিউজ ডেস্ক", "slug": "coderfleek" },
        "featuredImage": {
          "sourceUrl": "https://dainiksokal.com/wp-content/uploads/2025/05/new-12-2.jpg",
          "altText": "ভারতীয় কোম্পানির সঙ্গে চুক্তি বাতিল করেছে বাংলাদেশ",
          "mediaDetails": { "width": 1200, "height": 630 }
        }
      }
    ],
    "meta": {
      "total": 1425,
      "currentPage": 1,
      "totalPages": 143,
      "perPage": 10,
      "hasNextPage": true,
      "endCursor": "YXJyYXljb25uZWN0aW9uOjQ4MDgx"
    }
  }
}
